{
    "/theme/assets/js/app.js": "/theme/assets/js/app.js",
    "/theme/assets/css/app.css": "/theme/assets/css/app.css",
    "/theme/assets/css/foundation.css": "/theme/assets/css/foundation.css",
    "/theme/assets/js/app.js.map": "/theme/assets/js/app.js.map",
    "/theme/assets/css/app.css.map": "/theme/assets/css/app.css.map",
    "/theme/assets/css/foundation.css.map": "/theme/assets/css/foundation.css.map"
}
